…
pols_month_df = pols_month_df %>%
  separate(mon,into = c("year","month","day")) %>%
  mutate(
    year = as.integer(year),
    month = as.integer(month),
    day = as.integer(day)) %>%
mutate(month = month.name[month]) %>%
mutate(year = as.character(year)) %>%
drop_na(prez_gop) %>%
mutate(president = ifelse(prez_gop == 1, "gop","dem")) %>%
select(-prez_dem,-prez_gop,-day)
pols_month_df
```

    ## # A tibble: 822 × 9
    ##    year  month     gov_gop sen_gop rep_gop gov_dem sen_dem rep_dem president
    ##    <chr> <chr>       <dbl>   <dbl>   <dbl>   <dbl>   <dbl>   <dbl> <chr>    
    ##  1 1947  January        23      51     253      23      45     198 dem      
    ##  2 1947  February       23      51     253      23      45     198 dem      
    ##  3 1947  March          23      51     253      23      45     198 dem      
    ##  4 1947  April          23      51     253      23      45     198 dem      
    ##  5 1947  May            23      51     253      23      45     198 dem      
    ##  6 1947  June           23      51     253      23      45     198 dem      
    ##  7 1947  July           23      51     253      23      45     198 dem      
    ##  8 1947  August         23      51     253      23      45     198 dem      
    ##  9 1947  September      23      51     253      23      45     198 dem      
    ## 10 1947  October        23      51     253      23      45     198 dem      
    ## # … with 812 more rows
…
    ## ── Column specification ────────────────────────────────────────────────────────
    ## Delimiter: ","
    ## chr (3): Gender, Ethnicity, Child's First Name
    ## dbl (3): Year of Birth, Count, Rank

    ## 
    ## ℹ Use `spec()` to retrieve the full column specification for this data.
    ## ℹ Specify the column types or set `show_col_types = FALSE` to quiet this message.

``` r
pop_names
```

    ## # A tibble: 12,181 × 6
    ##    year_of_birth gender ethnicity                  childs_first_name count  rank
    ##            <dbl> <chr>  <chr>                      <chr>             <dbl> <dbl>
    ##  1          2016 female asian_and_pacific_islander olivia              172     1
    ##  2          2016 female asian_and_pacific_islander chloe               112     2
    ##  3          2016 female asian_and_pacific_islander sophia              104     3
    ##  4          2016 female asian_and_pacific_islander emily                99     4
    ##  5          2016 female asian_and_pacific_islander emma                 99     4
    ##  6          2016 female asian_and_pacific_islander mia                  79     5
    ##  7          2016 female asian_and_pacific_islander charlotte            59     6
    ##  8          2016 female asian_and_pacific_islander sarah                57     7
    ##  9          2016 female asian_and_pacific_islander isabella             56     8
    ## 10          2016 female asian_and_pacific_islander hannah               56     8
    ## # … with 12,171 more rows
…
